module github.com/argoproj-labs/argocd-autopilot

go 1.21

require (
	code.gitea.io/sdk/gitea v0.16.0
	github.com/argoproj/argo-cd/v2 v2.8.4
	github.com/briandowns/spinner v1.23.0
	github.com/ghodss/yaml v1.0.0
	github.com/go-git/go-billy/v5 v5.5.0
	github.com/go-git/go-git/v5 v5.9.0
	github.com/golang/mock v1.6.0
	github.com/google/go-github/v43 v43.0.0
	github.com/ktrysmt/go-bitbucket v0.9.70
	github.com/microsoft/azure-devops-go-api/azuredevops v1.0.0-b5
	github.com/sirupsen/logrus v1.9.3
	github.com/spf13/cobra v1.7.0
	github.com/spf13/pflag v1.0.5
	github.com/spf13/viper v1.17.0
	github.com/stretchr/testify v1.8.4
	github.com/xanzy/go-gitlab v0.93.1
	k8s.io/api v0.24.17
	k8s.io/apimachinery v0.24.17
	k8s.io/cli-runtime v0.24.17
	k8s.io/client-go v0.24.17
	k8s.io/kubectl v0.24.17
	sigs.k8s.io/kustomize/api v0.11.5
	sigs.k8s.io/kustomize/kyaml v0.13.7
)

require (
	cloud.google.com/go/compute v1.23.0 // indirect
	cloud.google.com/go/compute/metadata v0.2.3 // indirect
	dario.cat/mergo v1.0.0 // indirect
	github.com/Azure/go-ansiterm v0.0.0-20210617225240-d185dfc1b5a1 // indirect
	github.com/Azure/go-autorest v14.2.0+incompatible // indirect
	github.com/Azure/go-autorest/autorest v0.11.27 // indirect
	github.com/Azure/go-autorest/autorest/adal v0.9.20 // indirect
	github.com/Azure/go-autorest/autorest/date v0.3.0 // indirect
	github.com/Azure/go-autorest/logger v0.2.1 // indirect
	github.com/Azure/go-autorest/tracing v0.6.0 // indirect
	github.com/Knetic/govaluate v3.0.1-0.20171022003610-9aa49832a739+incompatible // indirect
	github.com/MakeNowJust/heredoc v0.0.0-20170808103936-bb23615498cd // indirect
	github.com/Masterminds/goutils v1.1.1 // indirect
	github.com/Masterminds/semver/v3 v3.2.1 // indirect
	github.com/Masterminds/sprig/v3 v3.2.3 // indirect
	github.com/Microsoft/go-winio v0.6.1 // indirect
	github.com/PagerDuty/go-pagerduty v1.6.0 // indirect
	github.com/ProtonMail/go-crypto v0.0.0-20230828082145-3c4c8a2d2371 // indirect
	github.com/RocketChat/Rocket.Chat.Go.SDK v0.0.0-20210112200207-10ab4d695d60 // indirect
	github.com/TomOnTime/utfutil v0.0.0-20180511104225-09c41003ee1d // indirect
	github.com/acomagu/bufpipe v1.0.4 // indirect
	github.com/alicebob/gopher-json v0.0.0-20200520072559-a9ecdc9d1d3a // indirect
	github.com/alicebob/miniredis/v2 v2.30.3 // indirect
	github.com/antonmedv/expr v1.12.5 // indirect
	github.com/argoproj/gitops-engine v0.7.1-0.20230607163028-425d65e07695 // indirect
	github.com/argoproj/notifications-engine v0.4.1-0.20230620204159-3446d4ae8520 // indirect
	github.com/argoproj/pkg v0.13.7-0.20230626144333-d56162821bd1 // indirect
	github.com/asaskevich/govalidator v0.0.0-20230301143203-a9d515a09cc2 // indirect
	github.com/beorn7/perks v1.0.1 // indirect
	github.com/bmatcuk/doublestar/v4 v4.6.0 // indirect
	github.com/bombsimon/logrusr/v2 v2.0.1 // indirect
	github.com/bradleyfalzon/ghinstallation/v2 v2.5.0 // indirect
	github.com/casbin/casbin/v2 v2.71.1 // indirect
	github.com/cespare/xxhash/v2 v2.2.0 // indirect
	github.com/chai2010/gettext-go v0.0.0-20170215093142-bf70f2a70fb1 // indirect
	github.com/cloudflare/circl v1.3.3 // indirect
	github.com/coreos/go-oidc/v3 v3.6.0 // indirect
	github.com/cpuguy83/go-md2man/v2 v2.0.2 // indirect
	github.com/cyphar/filepath-securejoin v0.2.4 // indirect
	github.com/davecgh/go-spew v1.1.2-0.20180830191138-d8f796af33cc // indirect
	github.com/davidmz/go-pageant v1.0.2 // indirect
	github.com/dgryski/go-rendezvous v0.0.0-20200823014737-9f7001d12a5f // indirect
	github.com/docker/distribution v2.8.2+incompatible // indirect
	github.com/dustin/go-humanize v1.0.1 // indirect
	github.com/emicklei/go-restful/v3 v3.8.0 // indirect
	github.com/emirpasic/gods v1.18.1 // indirect
	github.com/evanphx/json-patch v5.6.0+incompatible // indirect
	github.com/exponent-io/jsonpath v0.0.0-20151013193312-d6023ce2651d // indirect
	github.com/fatih/camelcase v1.0.0 // indirect
	github.com/fatih/color v1.14.1 // indirect
	github.com/felixge/httpsnoop v1.0.3 // indirect
	github.com/fsnotify/fsnotify v1.6.0 // indirect
	github.com/fvbommel/sortorder v1.0.1 // indirect
	github.com/go-errors/errors v1.4.2 // indirect
	github.com/go-fed/httpsig v1.1.0 // indirect
	github.com/go-git/gcfg v1.5.1-0.20230307220236-3a3c6141e376 // indirect
	github.com/go-jose/go-jose/v3 v3.0.0 // indirect
	github.com/go-logr/logr v1.2.4 // indirect
	github.com/go-logr/stdr v1.2.2 // indirect
	github.com/go-openapi/analysis v0.21.4 // indirect
	github.com/go-openapi/errors v0.20.3 // indirect
	github.com/go-openapi/jsonpointer v0.19.5 // indirect
	github.com/go-openapi/jsonreference v0.20.0 // indirect
	github.com/go-openapi/loads v0.21.2 // indirect
	github.com/go-openapi/runtime v0.26.0 // indirect
	github.com/go-openapi/spec v0.20.8 // indirect
	github.com/go-openapi/strfmt v0.21.7 // indirect
	github.com/go-openapi/swag v0.22.3 // indirect
	github.com/go-openapi/validate v0.22.1 // indirect
	github.com/go-redis/cache/v9 v9.0.0 // indirect
	github.com/go-telegram-bot-api/telegram-bot-api/v5 v5.5.1 // indirect
	github.com/gobwas/glob v0.2.3 // indirect
	github.com/gogits/go-gogs-client v0.0.0-20190616193657-5a05380e4bc2 // indirect
	github.com/gogo/protobuf v1.3.2 // indirect
	github.com/golang-jwt/jwt/v4 v4.5.0 // indirect
	github.com/golang/groupcache v0.0.0-20210331224755-41bb18bfe9da // indirect
	github.com/golang/protobuf v1.5.3 // indirect
	github.com/google/btree v1.1.2 // indirect
	github.com/google/gnostic v0.6.9 // indirect
	github.com/google/go-cmp v0.5.9 // indirect
	github.com/google/go-github/v41 v41.0.0 // indirect
	github.com/google/go-github/v53 v53.0.0 // indirect
	github.com/google/go-jsonnet v0.20.0 // indirect
	github.com/google/go-querystring v1.1.0 // indirect
	github.com/google/gofuzz v1.2.0 // indirect
	github.com/google/shlex v0.0.0-20191202100458-e7afc7fbc510 // indirect
	github.com/google/uuid v1.3.0 // indirect
	github.com/gorilla/handlers v1.5.1 // indirect
	github.com/gorilla/mux v1.8.0 // indirect
	github.com/gorilla/websocket v1.5.0 // indirect
	github.com/gregdel/pushover v1.1.0 // indirect
	github.com/gregjones/httpcache v0.0.0-20190611155906-901d90724c79 // indirect
	github.com/grpc-ecosystem/go-grpc-middleware v1.4.0 // indirect
	github.com/grpc-ecosystem/go-grpc-prometheus v1.2.0 // indirect
	github.com/grpc-ecosystem/grpc-gateway v1.16.0 // indirect
	github.com/hashicorp/go-cleanhttp v0.5.2 // indirect
	github.com/hashicorp/go-retryablehttp v0.7.4 // indirect
	github.com/hashicorp/go-version v1.5.0 // indirect
	github.com/hashicorp/hcl v1.0.0 // indirect
	github.com/huandu/xstrings v1.3.3 // indirect
	github.com/imdario/mergo v0.3.16 // indirect
	github.com/improbable-eng/grpc-web v0.15.0 // indirect
	github.com/inconshreveable/mousetrap v1.1.0 // indirect
	github.com/itchyny/gojq v0.12.13 // indirect
	github.com/itchyny/timefmt-go v0.1.5 // indirect
	github.com/jbenet/go-context v0.0.0-20150711004518-d14ea06fba99 // indirect
	github.com/jonboulle/clockwork v0.2.2 // indirect
	github.com/josharian/intern v1.0.0 // indirect
	github.com/json-iterator/go v1.1.12 // indirect
	github.com/kballard/go-shellquote v0.0.0-20180428030007-95032a82bc51 // indirect
	github.com/kevinburke/ssh_config v1.2.0 // indirect
	github.com/klauspost/compress v1.17.0 // indirect
	github.com/liggitt/tabwriter v0.0.0-20181228230101-89fcab3d43de // indirect
	github.com/magiconair/properties v1.8.7 // indirect
	github.com/mailru/easyjson v0.7.7 // indirect
	github.com/mattn/go-colorable v0.1.13 // indirect
	github.com/mattn/go-isatty v0.0.19 // indirect
	github.com/matttproud/golang_protobuf_extensions v1.0.4 // indirect
	github.com/mitchellh/copystructure v1.0.0 // indirect
	github.com/mitchellh/go-wordwrap v1.0.0 // indirect
	github.com/mitchellh/mapstructure v1.5.0 // indirect
	github.com/mitchellh/reflectwalk v1.0.0 // indirect
	github.com/moby/spdystream v0.2.0 // indirect
	github.com/moby/term v0.0.0-20210619224110-3f7ff695adc6 // indirect
	github.com/modern-go/concurrent v0.0.0-20180306012644-bacd9c7ef1dd // indirect
	github.com/modern-go/reflect2 v1.0.2 // indirect
	github.com/monochromegane/go-gitignore v0.0.0-20200626010858-205db1a8cc00 // indirect
	github.com/munnerz/goautoneg v0.0.0-20191010083416-a7dc8b61c822 // indirect
	github.com/oklog/ulid v1.3.1 // indirect
	github.com/opencontainers/go-digest v1.0.0 // indirect
	github.com/opencontainers/image-spec v1.1.0-rc.3 // indirect
	github.com/opsgenie/opsgenie-go-sdk-v2 v1.0.5 // indirect
	github.com/patrickmn/go-cache v2.1.0+incompatible // indirect
	github.com/pelletier/go-toml/v2 v2.1.0 // indirect
	github.com/peterbourgon/diskv v2.0.1+incompatible // indirect
	github.com/pjbgf/sha1cd v0.3.0 // indirect
	github.com/pkg/errors v0.9.1 // indirect
	github.com/pmezard/go-difflib v1.0.1-0.20181226105442-5d4384ee4fb2 // indirect
	github.com/prometheus/client_golang v1.16.0 // indirect
	github.com/prometheus/client_model v0.4.0 // indirect
	github.com/prometheus/common v0.42.0 // indirect
	github.com/prometheus/procfs v0.10.1 // indirect
	github.com/r3labs/diff v1.1.0 // indirect
	github.com/redis/go-redis/v9 v9.0.5 // indirect
	github.com/robfig/cron/v3 v3.0.1 // indirect
	github.com/rs/cors v1.8.0 // indirect
	github.com/russross/blackfriday v1.6.0 // indirect
	github.com/russross/blackfriday/v2 v2.1.0 // indirect
	github.com/sagikazarmark/locafero v0.3.0 // indirect
	github.com/sagikazarmark/slog-shim v0.1.0 // indirect
	github.com/sergi/go-diff v1.1.0 // indirect
	github.com/shopspring/decimal v1.2.0 // indirect
	github.com/skeema/knownhosts v1.2.0 // indirect
	github.com/skratchdot/open-golang v0.0.0-20160302144031-75fb7ed4208c // indirect
	github.com/slack-go/slack v0.12.1 // indirect
	github.com/soheilhy/cmux v0.1.5 // indirect
	github.com/sourcegraph/conc v0.3.0 // indirect
	github.com/spf13/afero v1.10.0 // indirect
	github.com/spf13/cast v1.5.1 // indirect
	github.com/subosito/gotenv v1.6.0 // indirect
	github.com/valyala/bytebufferpool v1.0.0 // indirect
	github.com/valyala/fasttemplate v1.2.2 // indirect
	github.com/vmihailenco/go-tinylfu v0.2.2 // indirect
	github.com/vmihailenco/msgpack/v5 v5.3.4 // indirect
	github.com/vmihailenco/tagparser/v2 v2.0.0 // indirect
	github.com/whilp/git-urls v1.0.0 // indirect
	github.com/xanzy/ssh-agent v0.3.3 // indirect
	github.com/xlab/treeprint v1.1.0 // indirect
	github.com/yuin/gopher-lua v1.1.0 // indirect
	go.mongodb.org/mongo-driver v1.11.3 // indirect
	go.opentelemetry.io/contrib/instrumentation/google.golang.org/grpc/otelgrpc v0.42.0 // indirect
	go.opentelemetry.io/otel v1.16.0 // indirect
	go.opentelemetry.io/otel/metric v1.16.0 // indirect
	go.opentelemetry.io/otel/trace v1.16.0 // indirect
	go.starlark.net v0.0.0-20220328144851-d1966c6b9fcd // indirect
	go.uber.org/atomic v1.9.0 // indirect
	go.uber.org/multierr v1.9.0 // indirect
	golang.org/x/crypto v0.14.0 // indirect
	golang.org/x/exp v0.0.0-20230905200255-921286631fa9 // indirect
	golang.org/x/mod v0.12.0 // indirect
	golang.org/x/net v0.17.0 // indirect
	golang.org/x/oauth2 v0.13.0 // indirect
	golang.org/x/sync v0.3.0 // indirect
	golang.org/x/sys v0.13.0 // indirect
	golang.org/x/term v0.13.0 // indirect
	golang.org/x/text v0.13.0 // indirect
	golang.org/x/time v0.3.0 // indirect
	golang.org/x/tools v0.13.0 // indirect
	gomodules.xyz/envconfig v1.3.1-0.20190308184047-426f31af0d45 // indirect
	gomodules.xyz/notify v0.1.1 // indirect
	google.golang.org/appengine v1.6.7 // indirect
	google.golang.org/genproto v0.0.0-20230913181813-007df8e322eb // indirect
	google.golang.org/genproto/googleapis/api v0.0.0-20230913181813-007df8e322eb // indirect
	google.golang.org/genproto/googleapis/rpc v0.0.0-20230920204549-e6e6cdab5c13 // indirect
	google.golang.org/grpc v1.58.3 // indirect
	google.golang.org/protobuf v1.31.0 // indirect
	gopkg.in/alexcesaro/quotedprintable.v3 v3.0.0-20150716171945-2caba252f4dc // indirect
	gopkg.in/go-playground/webhooks.v5 v5.17.0 // indirect
	gopkg.in/gomail.v2 v2.0.0-20160411212932-81ebce5c23df // indirect
	gopkg.in/inf.v0 v0.9.1 // indirect
	gopkg.in/ini.v1 v1.67.0 // indirect
	gopkg.in/warnings.v0 v0.1.2 // indirect
	gopkg.in/yaml.v2 v2.4.0 // indirect
	gopkg.in/yaml.v3 v3.0.1 // indirect
	k8s.io/apiextensions-apiserver v0.24.2 // indirect
	k8s.io/apiserver v0.24.17 // indirect
	k8s.io/component-base v0.24.17 // indirect
	k8s.io/component-helpers v0.24.17 // indirect
	k8s.io/klog/v2 v2.70.1 // indirect
	k8s.io/kube-aggregator v0.24.2 // indirect
	k8s.io/kube-openapi v0.0.0-20220627174259-011e075b9cb8 // indirect
	k8s.io/kubernetes v1.24.2 // indirect
	k8s.io/utils v0.0.0-20220706174534-f6158b442e7c // indirect
	layeh.com/gopher-json v0.0.0-20190114024228-97fed8db8427 // indirect
	oras.land/oras-go/v2 v2.2.0 // indirect
	sigs.k8s.io/controller-runtime v0.11.0 // indirect
	sigs.k8s.io/json v0.0.0-20220525155127-227cbc7cc124 // indirect
	sigs.k8s.io/structured-merge-diff/v4 v4.2.3 // indirect
	sigs.k8s.io/yaml v1.3.0 // indirect
)

replace (
	// https://github.com/golang/go/issues/33546#issuecomment-519656923
	github.com/go-check/check => github.com/go-check/check v0.0.0-20180628173108-788fd7840127

	github.com/golang/protobuf => github.com/golang/protobuf v1.4.2
	github.com/grpc-ecosystem/grpc-gateway => github.com/grpc-ecosystem/grpc-gateway v1.16.0
	github.com/improbable-eng/grpc-web => github.com/improbable-eng/grpc-web v0.0.0-20181111100011-16092bd1d58a

	// Avoid CVE-2023-44487, CWE-400
	google.golang.org/grpc => google.golang.org/grpc v1.58.3

	// Avoid CVE-2022-3064
	gopkg.in/yaml.v2 => gopkg.in/yaml.v2 v2.4.0

	// Avoid CVE-2022-28948
	gopkg.in/yaml.v3 => gopkg.in/yaml.v3 v3.0.1

	// https://github.com/kubernetes/kubernetes/issues/79384#issuecomment-505627280
	k8s.io/api => k8s.io/api v0.24.17
	k8s.io/apiextensions-apiserver => k8s.io/apiextensions-apiserver v0.24.17
	k8s.io/apimachinery => k8s.io/apimachinery v0.24.17
	k8s.io/apiserver => k8s.io/apiserver v0.24.17
	k8s.io/cli-runtime => k8s.io/cli-runtime v0.24.17
	k8s.io/client-go => k8s.io/client-go v0.24.17
	k8s.io/cloud-provider => k8s.io/cloud-provider v0.24.17
	k8s.io/cluster-bootstrap => k8s.io/cluster-bootstrap v0.24.17
	k8s.io/code-generator => k8s.io/code-generator v0.24.17
	k8s.io/component-base => k8s.io/component-base v0.24.17
	k8s.io/component-helpers => k8s.io/component-helpers v0.24.17
	k8s.io/controller-manager => k8s.io/controller-manager v0.24.17
	k8s.io/cri-api => k8s.io/cri-api v0.24.17
	k8s.io/csi-translation-lib => k8s.io/csi-translation-lib v0.24.17
	k8s.io/kube-aggregator => k8s.io/kube-aggregator v0.24.17
	k8s.io/kube-controller-manager => k8s.io/kube-controller-manager v0.24.17
	k8s.io/kube-proxy => k8s.io/kube-proxy v0.24.17
	k8s.io/kube-scheduler => k8s.io/kube-scheduler v0.24.17
	k8s.io/kubectl => k8s.io/kubectl v0.24.17
	k8s.io/kubelet => k8s.io/kubelet v0.24.17
	k8s.io/kubernetes => k8s.io/kubernetes v1.24.17
	k8s.io/legacy-cloud-providers => k8s.io/legacy-cloud-providers v0.24.17
	k8s.io/metrics => k8s.io/metrics v0.24.17
	k8s.io/mount-utils => k8s.io/mount-utils v0.24.17
	k8s.io/pod-security-admission => k8s.io/pod-security-admission v0.24.17
	k8s.io/sample-apiserver => k8s.io/sample-apiserver v0.24.17
)
